team
…
## -- Conflicts ------------------------------------------ tidyverse_conflicts() --
## x dplyr::filter() masks stats::filter()
## x dplyr::lag()    masks stats::lag()

dat <- readxl::read_xls('GSS.xls')

## Warning in read_fun(path = enc2native(normalizePath(path)), sheet_i = sheet, :
## Expecting numeric in A64817 / R64817C1: got 'Source'

## Warning in read_fun(path = enc2native(normalizePath(path)), sheet_i = sheet, : Expecting numeric in B64817 / R64817C2: got 'Data collection: General Social Survey
## Case Selection: all cases'

rename(dat, Year=GSS_year)

## # A tibble: 64,816 x 8
##     Year    ID Marital    Highest_grade Sex    Political    Happiness  Ballot   
##    <dbl> <dbl> <chr>      <chr>         <chr>  <chr>        <chr>      <chr>    
##  1  1972     1 Never mar~ 16            Female Ind,near dem Not too h~ Not appl~
##  2  1972     2 Married    10            Male   Not str dem~ Not too h~ Not appl~
##  3  1972     3 Married    12            Female Independent  Pretty ha~ Not appl~
##  4  1972     4 Married    17            Female Not str dem~ Not too h~ Not appl~
##  5  1972     5 Married    12            Female Strong demo~ Pretty ha~ Not appl~
##  6  1972     6 Never mar~ 14            Male   Ind,near dem Pretty ha~ Not appl~
##  7  1972     7 Divorced   13            Male   Ind,near dem Not too h~ Not appl~
##  8  1972     8 Never mar~ 16            Male   Ind,near dem Not too h~ Not appl~
##  9  1972     9 Never mar~ 12            Female Strong demo~ Pretty ha~ Not appl~
## 10  1972    10 Married    12            Female Strong demo~ Pretty ha~ Not appl~
## # ... with 64,806 more rows
…
#dat_educ = stack(dat%>%filter(Political=="Don't know",Highest_grade > 11), dat%>%filter(Political=="Ind,near dem",Highest_grade > 13),dat%>%filter(Political=="Ind, near rep",Highest_grade > 13),dat%>%filter(Political=="Independent",Highest_grade > 12),dat%>%filter(Political=="No answer",Highest_grade > 12),dat%>%filter(Political=="Not str democrat",Highest_grade > 12),dat%>%filter(Political=="Not str republican",Highest_grade > 13), dat%>%filter(Political=="Other party",Highest_grade > 13), dat%>%filter(Political=="Strong democrat",Highest_grade > 12), dat%>%filter(Political=="Strong republican",Highest_grade > 13))

The proportion of happy persons seem almost equal across all of the categories of marital status. Thus, marriage does not seem to affect happiness on its own and should be considered in the presence of other factors. It should be noted that while the proportion of happiness is almost equal, there is disproportionate amounts of very happy people in the married section.

dat%>%group_by(Marital,Happiness)%>%summarise(count = n())

## `summarise()` regrouping output by 'Marital' (override with `.groups` argument)

## # A tibble: 36 x 3
## # Groups:   Marital [6]
##    Marital  Happiness      count
##    <chr>    <chr>          <int>
##  1 Divorced Don't know         3
##  2 Divorced No answer         58
##  3 Divorced Not applicable   688
##  4 Divorced Not too happy   1450
##  5 Divorced Pretty happy    4683
##  6 Divorced Very happy      1497
##  7 Married  Don't know        12
##  8 Married  No answer        123
##  9 Married  Not applicable  2221
## 10 Married  Not too happy   2431
## # ... with 26 more rows
…
Political party does not seem to affect the distribution of happy people based on marital status. Although, persons who state they dont know their political affiliation seem to have most of the happy people either being married or divorced.

dat%>%group_by(Marital,Happiness, Political)%>%summarise(count = n())

## `summarise()` regrouping output by 'Marital', 'Happiness' (override with `.groups` argument)

## # A tibble: 271 x 4
## # Groups:   Marital, Happiness [36]
##    Marital  Happiness  Political          count
##    <chr>    <chr>      <chr>              <int>
##  1 Divorced Don't know Independent            2
##  2 Divorced Don't know Strong republican      1
##  3 Divorced No answer  Ind,near dem           3
##  4 Divorced No answer  Ind,near rep           6
##  5 Divorced No answer  Independent            8
##  6 Divorced No answer  Not str democrat      17
##  7 Divorced No answer  Not str republican     8
##  8 Divorced No answer  Other party            1
##  9 Divorced No answer  Strong democrat       12
## 10 Divorced No answer  Strong republican      3
## # ... with 261 more rows
…
